com\example\guestbook\OfyHelper.class
com\flystar\domain\OpenUser.class
com\examples\Upload.class
com\flystar\domain\DriveDocument.class
com\flystar\utils\IdGenerator.class
com\flystar\domain\Constants.class
com\examples\FileServe.class
com\flystar\domain\ViewLink.class
com\examples\GcsExampleServlet.class
com\examples\Result.class
com\flystar\service\OfyService.class
com\flystar\domain\SearchResult.class
com\framework\ViewAndModel.class
com\flystar\tasks\GoogleDriveUpdateTask.class
com\examples\FileUpload.class
com\flystar\domain\Document.class
com\flystar\utils\MimeDetector.class
com\examples\SearchServlet.class
com\examples\FileViewServlet.class
com\flystar\domain\ElasticDocument.class
com\flystar\utils\ErrorHandler.class
com\flystar\domain\ElasticSearchQuery.class
com\flystar\tasks\ElasticUpdateTask.class
